<?xml version="1.0" encoding="utf-8"?>
<!-- Generator: Adobe Illustrator 19.0.0, SVG Export Plug-In . SVG Version: 6.00 Build 0)  -->
<svg version="1.1" id="Spanx_x5F_logo" xmlns="http://www.w3.org/2000/svg" xmlns:xlink="http://www.w3.org/1999/xlink" x="0px"
	 y="0px" viewBox="0 0 915 230" style="enable-background:new 0 0 915 230;" xml:space="preserve">
<g>
	<path d="M9.8,120.8c3.9-0.5,7.8-1,11.7-1.4c1.4-0.1,2.8,0.3,4.2,0.5c3.1,0.5,5.1,1.6,5.8,5.3c1.4,7.4,6.6,12.4,12.9,16.1
		c6.4,3.9,13.5,5.5,20.9,6.2c9.4,1,18.7,0.9,27.8-1.7c3.8-1.1,7.7-2.6,11.1-4.7c11.2-7,12.1-20.4,1.9-28.7
		c-3.1-2.5-6.9-4.7-10.7-5.9c-9.8-3.2-19.7-5.9-29.7-8.6c-11-3-21.7-6.4-31.8-12c-24.6-13.6-23.9-46.6-1.6-61
		c8.8-5.7,18.4-8.9,28.7-10.2c13.2-1.8,26.4-1.5,39.4,2c9,2.4,17.1,6.6,23.8,13.2c6.8,6.7,10.3,14.9,10.5,25.1
		c-2.6,0.5-5.4,1.4-8.2,1.5c-3.5,0.1-7-0.4-10.5-0.8c-0.6-0.1-1.5-0.8-1.6-1.4c-1.6-9.1-7.4-14.6-15.5-17.6
		c-14.5-5.3-29.1-5.6-43.6-0.2c-2.7,1-5.3,2.8-7.5,4.8c-5.6,5.2-5.6,13.7-0.3,19.3c3.6,3.7,8.2,5.8,12.9,7.3
		c10.8,3.3,21.8,6.3,32.7,9.5c11.3,3.3,22.2,7.4,32.1,13.9c20.9,13.7,21,45.7,3.6,60.2c-7.5,6.2-15.9,10.4-25.2,12.6
		c-19.8,4.7-39.6,4.6-59.1-1.5c-10.7-3.3-20-9-26.8-18.2c-3.3-4.5-5.2-9.5-6.1-15c-0.4-2.6-1.2-5-1.9-7.6
		C9.8,121.4,9.8,121.1,9.8,120.8z"/>
	<path d="M898.2,3.6c3.7,1.4,6.7,3.5,7.7,7.7c1.3,5.2-1.6,10.4-6.8,12c-5,1.6-10.5-1.2-12.3-6.2c-1.8-4.8,0.6-10.4,5.4-12.6
		c0.7-0.3,1.3-0.6,2-0.9C895.5,3.6,896.8,3.6,898.2,3.6z M896.2,4.9c-4.9,0-8.9,4-8.8,8.8c0,4.7,4.1,8.7,8.8,8.7
		c4.8,0,8.8-3.9,8.8-8.7C905,8.8,901.1,4.9,896.2,4.9z"/>
	<path d="M679.9,162.8c-6.8,1.7-13.4,1.8-20,0.2c-1-0.2-1.9-1.1-2.6-1.9c-19-22.2-38-44.4-57.1-66.7c-10.9-12.7-21.8-25.5-32.7-38.2
		c-0.4-0.5-0.9-1-1.7-1.9c-0.1,1.3-0.2,2-0.2,2.8c-0.2,30.6-0.4,61.2-0.6,91.8c0,2.2,0.2,4.5,0.3,6.7c0.1,1.5,0.7,2.1,2.2,2
		c1.8-0.1,3.6,0,5.5,0c0,1.8,0,3.4,0,5.2c-11.3,0-22.5,0-33.8,0c0-1.6,0-3.3,0-5.1c1.5-0.1,2.9-0.1,4.7-0.2c0-0.9,0-1.7,0-2.5
		c0.3-41.8,0.6-83.6,0.9-125.5c0-0.9,0-1.8-0.2-2.7c-0.6-2.9-1.6-3.7-4.6-3.7c-1.3,0-2.7,0-4.2,0c0-1.8,0-3.4,0-5.2
		c0.8,0,1.5-0.1,2.2-0.1c10.1,0,20.2,0,30.3,0c1.5,0,2.5,0.4,3.4,1.6c28.5,34,57,68,85.5,102c0.4,0.5,0.9,1,1.6,1.7
		c0.1-1,0.2-1.6,0.2-2.3c0.2-29.3,0.5-58.5,0.7-87.8c0-2.5-0.2-4.9-0.3-7.4c-0.1-2-0.7-3.1-3-2.8c-1.2,0.2-2.5,0-4,0
		c0-1.8,0-3.4,0-5.2c10.9,0,21.8,0,32.8,0c0,1.7,0,3.3,0,5.2c-1.3,0-2.7,0-4.3,0C680.6,69.6,680.3,116.1,679.9,162.8z"/>
	<path d="M231.8,157.8c0,1.9,0,3.4,0,5.2c-13.5,0-26.8,0-40.3,0c0-1.6,0-3.2,0-5c1.4-0.1,2.7-0.2,4.3-0.2c0-0.8,0.1-1.6,0.1-2.4
		c0.1-40.9,0.3-81.8,0.4-122.7c0-2.2-0.1-4.5-0.2-6.7c-0.1-1.7-0.7-2.8-2.7-2.5c-1.2,0.2-2.4,0-3.8,0c0-1.7,0-3.4,0-5.2
		c0.5,0,1-0.1,1.5-0.1c27,0,54-0.1,81,0.1c11.1,0.1,21.7,2.3,31.2,8.3c11.8,7.5,17.8,18.4,18.5,32.3c1.2,24.2-13.5,37.7-32.7,43.7
		c-8.3,2.6-16.8,3.5-25.4,3.5c-12,0-23.9,0-35.9,0c-0.9,0-1.8,0-2.7,0c-0.1,0.4-0.2,0.7-0.2,1c0,15.6-0.1,31.3,0,46.9
		c0,4,0.1,4,4.1,4C229.8,157.8,230.7,157.8,231.8,157.8z M225,87.4c0.5,0.1,0.8,0.1,1.2,0.1c11.7,0,23.3,0.1,35-0.1
		c5.9-0.1,11.7-1.2,17.3-3.5c16.1-6.7,20.1-27.8,7.3-39c-5-4.4-11.1-6.4-17.6-7.2c-12.5-1.4-24.9-0.6-37.4,0.2
		c-1.9,0.1-3.8,0.5-5.8,0.7C225,55,225,71.1,225,87.4z"/>
	<path d="M806.4,71.6c13.1-16,26-31.8,38.9-47.5c-0.2-0.2-0.3-0.4-0.5-0.6c-1.5-0.1-3-0.2-4.7-0.3c0-1.7,0-3.3,0-5.1
		c11.6,0,23.2,0,34.9,0c0,1.6,0,3.2,0,4.8c0,0-0.2,0.2-0.3,0.2c-3.7-0.5-5.6,1.8-7.6,4.3c-15.5,19-31,38-46.5,57
		c-0.4,0.5-0.7,0.9-1.2,1.5c3,3.8,5.9,7.5,8.9,11.3c15.1,19.2,30.2,38.3,45.2,57.5c1.5,2,3.1,3.4,5.7,3c0.4-0.1,0.9,0.1,1.4,0.2
		c0.1,1.6,0.1,3.1,0.2,4.9c-14.9,0-29.5,0-44.4,0c0-1.6,0-3.2,0-5c1.5-0.1,3-0.1,5-0.2c-14.1-17.8-28-35.4-42.1-53.2
		c-14.7,17.4-29.3,34.5-42.7,52.6c0.1,0.2,0.3,0.4,0.4,0.6c1.8,0,3.5,0,5.4,0c0,1.9,0,3.5,0,5.2c-12,0-23.9,0-36,0
		c0-1.7,0-3.2,0-4.8c0.2-0.1,0.3-0.3,0.4-0.3c3,0.4,4.6-1.4,6.4-3.5c17.4-21.4,34.8-42.6,52.2-64c0.3-0.4,0.6-0.8,1-1.3
		c-0.3-0.5-0.6-0.9-0.9-1.3c-16.6-21.1-33.2-42.2-49.9-63.2c-0.5-0.7-1.7-1.1-2.6-1.3c-1-0.2-2.1,0-3.2,0c0-1.8,0-3.4,0-5.2
		c14.3,0,28.5,0,42.9,0c0,1.7,0,3.3,0,5.1c-1.2,0.1-2.3,0.2-3.9,0.3C781.5,39.5,793.8,55.4,806.4,71.6z"/>
	<path d="M500.1,157.8c0,2.1,0,3.7,0,5.4c-13.8,0-27.6,0-41.5,0c0-1.6,0-3.3,0-5.1c1.4,0,2.7,0,4.4,0c-0.3-0.9-0.5-1.6-0.8-2.2
		c-4.7-11.1-9.5-22.1-14.2-33.2c-0.6-1.5-1.4-1.9-3-1.9c-20.4,0-40.8,0-61.3,0c-1.5,0-2.2,0.4-2.9,1.8c-4.5,10.3-9.1,20.5-13.6,30.8
		c-0.6,1.4-0.9,2.9-1.5,4.7c2.3,0,4.1,0,6,0c0,1.9,0,3.5,0,5.2c-11.2,0-22.3,0-33.6,0c0-1.7,0-3.3,0-5.3c3.9,1.2,4.7-1.5,5.9-4.1
		c20.7-44.7,41.5-89.3,62.2-133.9c0.7-1.4,1.5-1.8,3-2c7.9-0.9,15.8-1.3,23.7,0.1c2.1,0.4,2.7,1.5,1.3,2.9c-1.2,1.2-0.7,2-0.2,3.1
		c6.7,14.8,13.3,29.7,20,44.6c12.5,27.7,24.9,55.5,37.3,83.2C493.2,155.5,494.3,159.6,500.1,157.8z M415.5,45
		c-8.6,19.3-17.1,38.2-25.6,57.3c16.7,0,33.1,0,49.8,0C431.7,83.2,423.7,64.3,415.5,45z"/>
	<path d="M763.5,194.8c4,0,7.1,3.2,7.1,7.2c0,3.8-3.4,7.1-7.2,7.1c-3.9,0-7.1-3.3-7-7.2C756.4,197.9,759.6,194.8,763.5,194.8z
		 M769.9,202c0-3.7-2.9-6.5-6.5-6.5c-3.5,0-6.4,2.9-6.4,6.4c0,3.5,2.9,6.4,6.4,6.5C767,208.4,769.9,205.6,769.9,202z"/>
	<g>
		<path d="M133.6,201.9c0.5,0,1,0,1.5,0c0.5,0,1.1,0,1.6,0.1c0.5,0.1,1,0.1,1.5,0.2c0.5,0.1,0.8,0.3,1.2,0.5c0.7,0.4,1.3,1,1.8,1.8
			c0.5,0.7,0.7,1.7,0.7,2.8c0,1.1-0.3,2.1-0.8,3c-0.6,0.8-1.3,1.5-2.4,1.9v0.1c1.3,0.3,2.3,0.9,3.1,1.8c0.7,0.9,1.1,2.1,1.1,3.4
			c0,0.8-0.1,1.6-0.4,2.3c-0.3,0.7-0.7,1.4-1.3,2c-0.6,0.6-1.2,1-2.1,1.4s-1.8,0.5-2.8,0.5h-10.4v-21.6H133.6z M134.4,211.2
			c1.6,0,2.8-0.3,3.5-0.9c0.7-0.6,1.1-1.4,1.1-2.6c0-0.8-0.1-1.4-0.4-1.8c-0.2-0.4-0.6-0.8-1-1c-0.4-0.2-0.9-0.4-1.5-0.5
			c-0.6-0.1-1.1-0.1-1.8-0.1h-5.7v6.9H134.4z M135.8,221.1c1.3,0,2.3-0.3,3-1s1.1-1.6,1.1-2.8c0-0.7-0.1-1.3-0.4-1.8s-0.6-0.8-1-1.1
			c-0.4-0.3-0.9-0.5-1.5-0.6c-0.6-0.1-1.1-0.2-1.8-0.2h-6.6v7.5H135.8z"/>
		<path d="M180.6,223.5h-2.9v-8.8l-8.3-12.8h3.4l6.5,10.3l6.3-10.3h3.3l-8.3,12.8V223.5z"/>
		<path d="M261,204.9c-1-0.7-2.2-1-3.7-1c-0.6,0-1.2,0.1-1.8,0.2s-1.1,0.3-1.6,0.6c-0.5,0.3-0.8,0.7-1.1,1.1
			c-0.3,0.5-0.4,1.1-0.4,1.8c0,0.7,0.2,1.2,0.6,1.6s0.9,0.8,1.6,1c0.7,0.3,1.4,0.5,2.2,0.7c0.8,0.2,1.7,0.4,2.5,0.6
			c0.9,0.2,1.7,0.4,2.5,0.7c0.8,0.3,1.6,0.6,2.2,1.1c0.7,0.5,1.2,1,1.6,1.8c0.4,0.7,0.6,1.6,0.6,2.7c0,1.1-0.3,2.1-0.8,2.9
			c-0.5,0.8-1.2,1.5-2,2c-0.8,0.5-1.7,0.9-2.7,1.1c-1,0.2-2,0.3-3,0.3c-1.2,0-2.4-0.2-3.4-0.5c-1.1-0.3-2-0.8-2.8-1.4
			s-1.5-1.4-1.9-2.4c-0.5-1-0.7-2.1-0.7-3.4h2.7c0,0.9,0.2,1.7,0.5,2.3c0.4,0.7,0.8,1.2,1.4,1.6c0.6,0.4,1.2,0.7,2,0.9
			c0.8,0.2,1.6,0.3,2.4,0.3c0.6,0,1.3-0.1,2-0.2s1.2-0.3,1.8-0.6c0.5-0.3,0.9-0.7,1.3-1.2c0.3-0.5,0.5-1.1,0.5-1.9
			c0-0.7-0.2-1.4-0.6-1.8s-0.9-0.8-1.6-1.1c-0.7-0.3-1.4-0.5-2.2-0.7c-0.8-0.2-1.7-0.4-2.5-0.6c-0.9-0.2-1.7-0.4-2.5-0.7
			c-0.8-0.3-1.6-0.6-2.2-1c-0.7-0.4-1.2-0.9-1.6-1.6c-0.4-0.7-0.6-1.5-0.6-2.5c0-1.1,0.2-2,0.7-2.8c0.4-0.8,1-1.5,1.8-2
			c0.7-0.5,1.6-0.9,2.5-1.1c0.9-0.3,1.9-0.4,2.9-0.4c1.1,0,2.1,0.1,3.1,0.4c0.9,0.3,1.8,0.7,2.5,1.2c0.7,0.6,1.3,1.3,1.7,2.1
			c0.4,0.9,0.6,1.9,0.7,3.1h-2.7C262.5,206.7,261.9,205.6,261,204.9z"/>
		<path d="M304,201.9l8.4,21.6h-3.2l-2.4-6.5h-9.1l-2.4,6.5h-2.9l8.4-21.6H304z M306,214.6l-3.6-10.1h-0.1l-3.7,10.1H306z"/>
		<path d="M350,201.9c2.1,0,3.7,0.5,4.8,1.5c1.2,1,1.7,2.4,1.7,4.1c0,1.3-0.3,2.5-0.9,3.4c-0.6,1-1.5,1.7-2.9,2v0.1
			c0.6,0.1,1.1,0.3,1.5,0.6c0.4,0.3,0.7,0.6,0.9,1c0.2,0.4,0.4,0.8,0.5,1.3c0.1,0.5,0.2,1,0.3,1.5c0,0.5,0.1,1.1,0.1,1.6
			c0,0.5,0.1,1.1,0.2,1.6s0.2,1,0.3,1.5c0.2,0.5,0.4,0.9,0.7,1.3h-3.2c-0.2-0.2-0.3-0.5-0.4-0.9c-0.1-0.4-0.1-0.8-0.1-1.3
			c0-0.5,0-1-0.1-1.5c0-0.5-0.1-1.1-0.2-1.6c-0.1-0.5-0.2-1-0.3-1.5s-0.3-0.9-0.6-1.2c-0.3-0.4-0.6-0.6-1-0.8
			c-0.4-0.2-1-0.3-1.7-0.3h-7v9.2h-2.9v-21.6H350z M350.6,211.8c0.6-0.1,1.1-0.3,1.6-0.6c0.5-0.3,0.8-0.7,1.1-1.2
			c0.3-0.5,0.4-1.1,0.4-1.9c0-1.1-0.3-2-0.9-2.7c-0.6-0.7-1.6-1-2.9-1h-7.1v7.5h6C349.3,211.9,350,211.9,350.6,211.8z"/>
		<path d="M394.8,201.9l8.4,21.6h-3.2l-2.4-6.5h-9.1l-2.4,6.5h-2.9l8.4-21.6H394.8z M396.8,214.6l-3.6-10.1h-0.1l-3.7,10.1H396.8z"
			/>
		<path d="M472.1,201.9c0.5,0,1,0,1.5,0c0.5,0,1.1,0,1.6,0.1c0.5,0.1,1,0.1,1.5,0.2c0.5,0.1,0.8,0.3,1.2,0.5c0.7,0.4,1.3,1,1.8,1.8
			s0.7,1.7,0.7,2.8c0,1.1-0.3,2.1-0.8,3s-1.3,1.5-2.4,1.9v0.1c1.3,0.3,2.3,0.9,3.1,1.8c0.7,0.9,1.1,2.1,1.1,3.4
			c0,0.8-0.1,1.6-0.4,2.3s-0.7,1.4-1.3,2s-1.2,1-2.1,1.4c-0.8,0.4-1.8,0.5-2.8,0.5h-10.4v-21.6H472.1z M472.9,211.2
			c1.6,0,2.8-0.3,3.5-0.9c0.7-0.6,1.1-1.4,1.1-2.6c0-0.8-0.1-1.4-0.4-1.8c-0.2-0.4-0.6-0.8-1-1s-0.9-0.4-1.5-0.5
			c-0.6-0.1-1.1-0.1-1.8-0.1h-5.7v6.9H472.9z M474.3,221.1c1.3,0,2.3-0.3,3-1c0.7-0.7,1.1-1.6,1.1-2.8c0-0.7-0.1-1.3-0.4-1.8
			c-0.3-0.5-0.6-0.8-1-1.1c-0.4-0.3-0.9-0.5-1.5-0.6c-0.6-0.1-1.2-0.2-1.8-0.2h-6.6v7.5H474.3z"/>
		<path d="M513.1,201.9v19.2h11.4v2.4h-14.3v-21.6H513.1z"/>
		<path d="M561.3,201.9l8.4,21.6h-3.2l-2.4-6.5H555l-2.4,6.5h-2.9l8.4-21.6H561.3z M563.3,214.6l-3.6-10.1h-0.1l-3.7,10.1H563.3z"/>
		<path d="M599.9,201.9v10.8l11-10.8h3.7l-9.1,8.7l9.5,12.9h-3.6l-7.8-10.9l-3.6,3.4v7.6h-2.9v-21.6H599.9z"/>
		<path d="M657.4,201.9v2.4h-12v6.9h11.2v2.4h-11.2v7.5h12.1v2.4h-15v-21.6H657.4z"/>
		<path d="M689.1,201.9v19.2h11.4v2.4h-14.3v-21.6H689.1z"/>
		<path d="M737.2,223.5h-2.9v-8.8l-8.3-12.8h3.4l6.5,10.3l6.3-10.3h3.3l-8.3,12.8V223.5z"/>
	</g>
	<g>
		<path d="M897.4,8c1,0,1.8,0.3,2.4,0.8c0.6,0.5,0.9,1.2,0.9,2.1c0,0.7-0.1,1.2-0.4,1.7c-0.3,0.5-0.8,0.8-1.4,1v0
			c0.3,0.1,0.6,0.2,0.8,0.3c0.2,0.1,0.4,0.3,0.5,0.5s0.2,0.4,0.3,0.7c0.1,0.2,0.1,0.5,0.1,0.8c0,0.3,0,0.5,0,0.8
			c0,0.3,0,0.5,0.1,0.8c0,0.3,0.1,0.5,0.2,0.7c0.1,0.2,0.2,0.4,0.3,0.6h-1.6c-0.1-0.1-0.2-0.3-0.2-0.5c0-0.2-0.1-0.4-0.1-0.6
			c0-0.2,0-0.5,0-0.8c0-0.3,0-0.5-0.1-0.8c0-0.3-0.1-0.5-0.2-0.7c-0.1-0.2-0.2-0.4-0.3-0.6c-0.1-0.2-0.3-0.3-0.5-0.4
			c-0.2-0.1-0.5-0.2-0.8-0.2h-3.5v4.6h-1.4V8H897.4z M897.7,12.9c0.3-0.1,0.6-0.1,0.8-0.3s0.4-0.3,0.5-0.6c0.1-0.2,0.2-0.6,0.2-1
			c0-0.5-0.2-1-0.5-1.3s-0.8-0.5-1.5-0.5h-3.6V13h3C897.1,13,897.4,13,897.7,12.9z"/>
	</g>
	<g>
		<path d="M764.3,198.4c0.7,0,1.2,0.2,1.6,0.5c0.4,0.3,0.6,0.8,0.6,1.4c0,0.4-0.1,0.8-0.3,1.2c-0.2,0.3-0.5,0.6-1,0.7v0
			c0.2,0,0.4,0.1,0.5,0.2c0.1,0.1,0.2,0.2,0.3,0.3c0.1,0.1,0.1,0.3,0.2,0.4c0,0.2,0.1,0.3,0.1,0.5c0,0.2,0,0.4,0,0.5s0,0.4,0.1,0.5
			c0,0.2,0.1,0.3,0.1,0.5c0.1,0.2,0.1,0.3,0.2,0.4h-1.1c-0.1-0.1-0.1-0.2-0.1-0.3c0-0.1,0-0.3,0-0.4c0-0.2,0-0.3,0-0.5
			c0-0.2,0-0.4-0.1-0.5c0-0.2-0.1-0.3-0.1-0.5c0-0.2-0.1-0.3-0.2-0.4c-0.1-0.1-0.2-0.2-0.3-0.3c-0.1-0.1-0.3-0.1-0.6-0.1h-2.3v3.1
			h-1v-7.2H764.3z M764.5,201.7c0.2,0,0.4-0.1,0.5-0.2c0.2-0.1,0.3-0.2,0.4-0.4s0.1-0.4,0.1-0.6c0-0.4-0.1-0.7-0.3-0.9
			c-0.2-0.2-0.5-0.3-1-0.3h-2.4v2.5h2C764,201.7,764.3,201.7,764.5,201.7z"/>
	</g>
</g>
</svg>
