<?xml version="1.0" encoding="utf-8"?>
<!-- Generator: Adobe Illustrator 19.0.0, SVG Export Plug-In . SVG Version: 6.00 Build 0)  -->
<svg version="1.1" id="Layer_1" xmlns="http://www.w3.org/2000/svg" xmlns:xlink="http://www.w3.org/1999/xlink" x="0px" y="0px"
	 viewBox="0 0 450 450" style="enable-background:new 0 0 450 450;" xml:space="preserve">
<style type="text/css">
	.st0{fill:none;}
	.st1{fill:#cb121a;}
</style>
<g>
	<path class="st0" d="M326.9,136.2c-34.1-28-84.9-29.3-119.9-2.2c-26.4,20.4-38.3,47.5-34,81c1.7,13.4,7.2,25.5,14.9,36.8
		c-21.7,19.6-43.3,39.1-65.7,59.4c9.9,9,19.3,17.4,28.9,26.1c9.3-9.7,19.4-20.3,29.6-30.9c10.1-10.6,20.3-21.2,30.6-31.9
		c30,18.1,61,21.5,93.1,7.9C366.1,256.3,378,178.2,326.9,136.2z M309.9,237.1c-26.6,28.5-75,28.5-101.6,0.1
		c-22.4-23.8-19.7-60,5.9-81c13-10.7,28.1-15.5,46.8-15.9c22.7,1,43.2,9.9,56.4,31.6C330,193,326.8,218.9,309.9,237.1z"/>
	<path class="st1" d="M223.6,7.5C103.4,7.4,5.9,105,6,225.2c0.1,120,97.4,217.3,217.4,217.3c120.2,0.1,217.7-97.4,217.6-217.6
		C440.9,104.9,343.6,7.6,223.6,7.5z M304.4,282.4c-32,13.6-63,10.2-93.1-7.9c-10.3,10.7-20.5,21.3-30.6,31.9
		c-10.1,10.6-20.2,21.1-29.6,30.9c-9.6-8.7-19-17.1-28.9-26.1c22.4-20.3,44-39.7,65.7-59.4c-7.7-11.3-13.2-23.4-14.9-36.8
		c-4.3-33.5,7.6-60.6,34-81c35-27.1,85.8-25.9,119.9,2.2C378,178.2,366.1,256.3,304.4,282.4z"/>
	<path class="st1" d="M260.9,140.4c-18.7,0.3-33.7,5.2-46.8,15.9c-25.6,21-28.3,57.1-5.9,81c26.7,28.4,75,28.4,101.6-0.1
		c17-18.2,20.2-44.1,7.4-65.1C304.1,150.3,283.6,141.4,260.9,140.4z"/>
</g>
</svg>
